<svg width="300" height="246" viewBox="0 0 300 246" fill="none" xmlns="http://www.w3.org/2000/svg">
<path d="M183.358 201.344C192.515 196.179 201.744 191.015 211.337 185.559C206.323 177.485 201.672 169.701 196.73 162.136C181.686 139.077 166.57 116.091 151.526 93.1047C149.419 89.904 148.474 89.904 146.439 93.1774C127.616 123.947 108.794 154.717 89.7529 185.85C99.9273 191.669 110.247 197.561 121.294 203.963C80.5959 218.147 40.7704 232.041 0.94477 245.934C0.654072 245.571 0.290698 245.134 0 244.771C49.9273 163.518 99.782 82.2662 150.145 0.213867C200.436 80.8841 250.218 160.754 300 240.697C299.637 241.133 299.346 241.497 298.983 241.934C260.392 228.913 221.802 215.965 183.212 202.944C183.285 202.362 183.285 201.853 183.358 201.344Z" fill="url(#paint0_radial_70_4391)"/>
<defs>
<radialGradient id="paint0_radial_70_4391" cx="0" cy="0" r="1" gradientUnits="userSpaceOnUse" gradientTransform="translate(159.5 -71.5) rotate(109.608) scale(293.521 1622.44)">
<stop stop-color="#F0C002"/>
<stop offset="0.910256" stop-color="#FF811B"/>
</radialGradient>
</defs>
</svg>
