<svg width="315" height="274" viewBox="0 0 315 274" fill="none" xmlns="http://www.w3.org/2000/svg">
<path d="M8.2914 265.934L157.21 8L306.128 265.934L157.574 207.896L157.21 207.753L156.846 207.896L8.2914 265.934Z" fill="url(#paint0_linear_70_4472)" fill-opacity="0.1" stroke="url(#paint1_linear_70_4472)" stroke-width="2"/>
<g filter="url(#filter0_f_70_4472)">
<path d="M8.2914 265.934L157.21 8L306.128 265.934L157.574 207.895L157.21 207.753L156.846 207.895L8.2914 265.934Z" stroke="url(#paint2_linear_70_4472)" stroke-width="2"/>
</g>
<path d="M265.406 153.213C265.406 216.608 214.014 268 150.619 268C87.2235 268 35.8315 216.608 35.8315 153.213C35.8315 89.8177 87.2235 38.4258 150.619 38.4258C214.014 38.4258 265.406 89.8177 265.406 153.213ZM46.0371 153.213C46.0371 210.972 92.8599 257.794 150.619 257.794C208.377 257.794 255.2 210.972 255.2 153.213C255.2 95.4541 208.377 48.6314 150.619 48.6314C92.8599 48.6314 46.0371 95.4541 46.0371 153.213Z" fill="url(#paint3_linear_70_4472)"/>
<circle r="103.637" transform="matrix(1 0 0 -1 150.619 153.212)" stroke="url(#paint4_linear_70_4472)" stroke-width="2.59406"/>
<defs>
<filter id="filter0_f_70_4472" x="0" y="0" width="314.419" height="273.903" filterUnits="userSpaceOnUse" color-interpolation-filters="sRGB">
<feFlood flood-opacity="0" result="BackgroundImageFix"/>
<feBlend mode="normal" in="SourceGraphic" in2="BackgroundImageFix" result="shape"/>
<feGaussianBlur stdDeviation="3" result="effect1_foregroundBlur_70_4472"/>
</filter>
<linearGradient id="paint0_linear_70_4472" x1="308.419" y1="5.99994" x2="-19.2919" y2="42.8247" gradientUnits="userSpaceOnUse">
<stop stop-color="#F0C002"/>
<stop offset="1" stop-color="#FF811B"/>
</linearGradient>
<linearGradient id="paint1_linear_70_4472" x1="308.419" y1="5.99994" x2="-19.2919" y2="42.8247" gradientUnits="userSpaceOnUse">
<stop stop-color="#F0C002"/>
<stop offset="1" stop-color="#FF811B"/>
</linearGradient>
<linearGradient id="paint2_linear_70_4472" x1="308.419" y1="5.99994" x2="-19.2919" y2="42.8247" gradientUnits="userSpaceOnUse">
<stop stop-color="#F0C002"/>
<stop offset="1" stop-color="#FF811B"/>
</linearGradient>
<linearGradient id="paint3_linear_70_4472" x1="150.619" y1="38.4258" x2="150.619" y2="268" gradientUnits="userSpaceOnUse">
<stop stop-color="#F5F5F5" stop-opacity="0.53"/>
<stop offset="0.519502" stop-opacity="0"/>
<stop offset="1" stop-color="#898989" stop-opacity="0.2"/>
</linearGradient>
<linearGradient id="paint4_linear_70_4472" x1="104.934" y1="0" x2="104.934" y2="209.868" gradientUnits="userSpaceOnUse">
<stop stop-color="#CD7A30"/>
<stop offset="0.519502" stop-opacity="0"/>
<stop offset="1" stop-color="#CD7A30" stop-opacity="0.5"/>
</linearGradient>
</defs>
</svg>
